1 10 20
100 200 125
201 210 89
900 1000 174
16520 99009 351
90210 90250 271
10000 10050 211
32 66 113
77 85 111
15 486 144
9900 10000 180
1234 5678 238
99900 99999 227
59 88 116
808 909 179
101 22022 279
654 721 171
852 8520 262
6360 25330 282
51 98 119
1 100 119
13 25 24
2 40 112
68 650 145
96 321 131
230 560 144
741 963 179
852 1234 182
4561 7892 262
78 99 119
52 65 113
12 21 21
36 63 113
99 109 114
11 11011 268
845 956 179
8426 9510 260
3214 4563 238
1452 2563 209
8520 9630 260
147 258 128
258 369 144
4785 5896 236
14563 36541 324
159 357 144
753 951 179
456 852 171
10 20 21
60 80 116
100 500 144
610 910 179
303 909 179
425 956 179
512 1010 179
465 9113 262
465 321 144
345 858 171
501 5959 238
402 960 179
6 36 112
5 25 24
7 27 112
10 2020 182
2020 3000 217
50 5 112
900 909 117
5 1000 179
1 6 9
16 20 21
21 27 112
29 33 107
19 96 116
18 98 119
17 38 112
20 31 112
19 27 112
2 22 21
3 33 112
4 44 112
5 45 112
101 130 122
520 560 137
606 660 145
120 201 125
20000 20020 181
95005 95050 222
77077 77087 201
44444 44464 164
3321 3333 181
777 787 122
656 676 145
952 982 143
4 14 20
6 16 20
17 27 112
19 29 112
35 65 113
55 85 116
42 92 116
101 121 114
888888 888899 264
989898 989990 215
100 101 26
1 2 2
500000 500050 258
