................
----------------------------------------------------------------------
Ran 16 tests in 1.749s

OK
Name             Stmts   Miss Branch BrPart  Cover   Missing
------------------------------------------------------------
Collatz.py          43      0     16      0   100%
TestCollatz.py      69      0      0      0   100%
------------------------------------------------------------
TOTAL              112      0     16      0   100%
