..............
----------------------------------------------------------------------
Ran 14 tests in 0.007s
OK
Name             Stmts   Miss Branch BrPart  Cover   Missing
------------------------------------------------------------
Collatz.py          31      0     12      0   100%
TestCollatz.py      61      0      0      0   100%
------------------------------------------------------------
TOTAL               92      0     12      0   100%